{
    "app-id" : "io.gitlab.gregorni.Calligraphy",
    "runtime" : "org.gnome.Platform",
    "runtime-version" : "44",
    "sdk" : "org.gnome.Sdk",
    "command" : "calligraphy",
    "finish-args" : [
        "--share=ipc",
        "--socket=fallback-x11",
        "--device=dri",
        "--socket=wayland"
    ],
    "cleanup" : [
        "/include",
        "/lib/pkgconfig",
        "/man",
        "/share/doc",
        "/share/gtk-doc",
        "/share/man",
        "/share/pkgconfig",
        "*.la",
        "*.a"
    ],
    "modules" : [
    	"build-aux/blueprint-compiler.json",
    	{
    	    "name": "pyfiglet",
	    "buildsystem": "simple",
	    "build-commands": [
		"pip3 install --verbose --exists-action=i --no-index --find-links=\"file://${PWD}\" --prefix=${FLATPAK_DEST} \"pyfiglet\" --no-build-isolation"
	    ],
	    "sources": [
		{
		    "type": "file",
		    "url": "https://files.pythonhosted.org/packages/f9/02/48293654fb2e4fdeb4d927f00a380230a832744b6c9af757373a72d018d1/pyfiglet-0.8.post1.tar.gz",
		    "sha256": "c6c2321755d09267b438ec7b936825a4910fec696292139e664ca8670e103639"
		}
	    ]
	},
        {
            "name" : "calligraphy",
            "builddir" : true,
            "buildsystem" : "meson",
            "sources" : [
                {
                    "type" : "dir",
                    "path" : "."
                }
            ]
        }
    ]
}
